{
  "Version": "2008-10-17",
  "Statement": [
    {
      "Sid": "new policy",
      "Effect": "Allow",
      "Principal": "*",
      "Action": [
        "ecr:GetDownloadUrlForLayer",
        "ecr:BatchGetImage",
        "ecr:BatchCheckLayerAvailability",
        "ecr:PutImage",
        "ecr:InitiateLayerUpload",
        "ecr:UploadLayerPart",
        "ecr:CompleteLayerUpload",
        "ecr:DescribeRepositories",
        "ecr:GetRepositoryPolicy",
        "ecr:ListImages",
        "ecr:BatchDeleteImage",
        "ecr:SetRepositoryPolicy",
        "ecr:DeleteRepositoryPolicy"
      ]
    }
  ]
}
